8/26/2019 4:32:03 PM
Import In Process. Validating File.

8/26/2019 4:32:05 PM
Validation Complete. Data Processing in Progress.

8/26/2019 4:32:05 PM
Fetch all SKU list START.

8/26/2019 4:32:06 PM
Fetch all SKU list END.

8/26/2019 4:32:06 PM
Fetch all Node list START.

8/26/2019 4:32:06 PM
Fetch all Node list END.

8/26/2019 4:32:06 PM
Temp Transaction Bulk Insert Start

8/26/2019 4:32:09 PM
Temp Transaction Bulk Insert END

8/26/2019 4:32:09 PM
Write Excel Sheet Status START

8/26/2019 4:32:09 PM
Write Excel Sheet Status END

8/26/2019 4:32:09 PM
Bulk Insert Start

8/26/2019 4:32:13 PM
Bulk Insert END

8/26/2019 4:32:13 PM
Refreshing Collections in process!

8/26/2019 4:32:14 PM
Refreshing Replenishment Records!

8/26/2019 4:32:15 PM
Refreshing Replenishment Records Successful!

8/26/2019 4:32:15 PM
Copying to Dummy Collection!

8/26/2019 4:32:15 PM
Copying to Dummy Collection Successful and adding input data to collection!

8/26/2019 4:32:16 PM
Adding input data to collection Successful and drop original collection!

8/26/2019 4:32:16 PM
Refereshing Records Successful!

8/26/2019 4:32:16 PM
Refreshing Collections completes!

8/26/2019 4:32:22 PM
630 rows successfully processed.
 The 630 rows are successfullly imported with 0 rows failed and 0 rows duplicated!

