8/27/2019 1:21:34 PM
Import In Process. Validating File.

8/27/2019 1:21:38 PM
Validation Complete. Data Processing in Progress.

8/27/2019 1:21:38 PM
Fetch all SKU list START.

8/27/2019 1:21:38 PM
Fetch all SKU list END.

8/27/2019 1:21:38 PM
Fetch all Node list START.

8/27/2019 1:21:38 PM
Fetch all Node list END.

8/27/2019 1:21:38 PM
Temp Transaction Bulk Insert Start

8/27/2019 1:21:38 PM
Temp Transaction Bulk Insert END

8/27/2019 1:21:38 PM
Write Excel Sheet Status START

8/27/2019 1:21:38 PM
Write Excel Sheet Status END

8/27/2019 1:21:38 PM
Bulk Insert Start

8/27/2019 1:21:38 PM
Bulk Insert END

8/27/2019 1:21:39 PM
Refreshing Collections in process!

8/27/2019 1:21:40 PM
Refreshing Replenishment Records!

8/27/2019 1:21:40 PM
Refreshing Replenishment Records Successful!

8/27/2019 1:21:40 PM
Copying to Dummy Collection!

8/27/2019 1:21:40 PM
Copying to Dummy Collection Successful and adding input data to collection!

8/27/2019 1:21:42 PM
Adding input data to collection Successful and drop original collection!

8/27/2019 1:21:42 PM
Refereshing Records Successful!

8/27/2019 1:21:42 PM
Refreshing Collections completes!

8/27/2019 1:21:47 PM
2 rows successfully processed.
 The 0 rows are successfullly imported with 0 rows failed and 2 rows duplicated!

